TIMESTAMP,TRACE,ID,DLC,DATA0,DATA1,DATA2,DATA3,DATA4,DATA5,DATA6,DATA7
0,TX,0x7DF,8,0x02,0x01,0x0C,0x55,0x55,0x55,0x55,0x55
637910255,RX,0x3A8,8,0x01,0x00,0x00,0x00,0x07,0x25,0xFE,0x48
637911226,RX,0x3A9,8,0x00,0x00,0x00,0x00,0x00,0x00,0x00,0x00
637911254,RX,0x49,8,0x00,0x00,0x00,0x00,0x00,0x00,0x00,0x00
637912220,RX,0x77,8,0x00,0x00,0x07,0xFF,0x7F,0xD7,0xDD,0xFA
637912230,RX,0x7D,8,0x01,0x55,0xA9,0x00,0xAA,0x80,0x00,0x00
637912239,RX,0x167,8,0x72,0x80,0x00,0x10,0x00,0x19,0xF3,0x00
637912249,RX,0x204,8,0xC0,0x00,0x7D,0x01,0xD6,0x00,0x00,0x00
637913219,RX,0x213,8,0xFF,0xFF,0x00,0x00,0x80,0x00,0x00,0x00
637913229,RX,0x214,8,0x00,0x00,0x00,0x00,0x00,0x00,0x00,0x00
637913239,RX,0x7E8,8,0x04,0x41,0x0C,0x0E,0xB5,0x00,0x00,0x00
637913248,RX,0x216,8,0xF5,0x34,0xE5,0x17,0x00,0x00,0x00,0x00
637914219,RX,0x217,8,0x00,0x00,0x00,0x00,0x00,0x00,0x00,0x00
637914228,RX,0x415,8,0x00,0x00,0xC0,0xFC,0x00,0x00,0x00,0x00
637914238,RX,0x4B0,8,0xA2,0x00,0x80,0x00,0x00,0x0A,0xAC,0xA9
637915244,RX,0x326,8,0x01,0x98,0x05,0xFA,0x81,0xA8,0x00,0x00